%YAML 1.1
%TAG !u! tag:unity3d.com,2011:
--- !u!1 &5825195049837669196
GameObject:
  m_ObjectHideFlags: 0
  m_CorrespondingSourceObject: {fileID: 0}
  m_PrefabInstance: {fileID: 0}
  m_PrefabAsset: {fileID: 0}
  serializedVersion: 6
  m_Component:
  - component: {fileID: 5825195049837669199}
  - component: {fileID: 5825195049837669198}
  m_Layer: 0
  m_Name: GameObject
  m_TagString: Untagged
  m_Icon: {fileID: 0}
  m_NavMeshLayer: 0
  m_StaticEditorFlags: 0
  m_IsActive: 1
--- !u!4 &5825195049837669199
Transform:
  m_ObjectHideFlags: 0
  m_CorrespondingSourceObject: {fileID: 0}
  m_PrefabInstance: {fileID: 0}
  m_PrefabAsset: {fileID: 0}
  m_GameObject: {fileID: 5825195049837669196}
  m_LocalRotation: {x: 0, y: 0, z: 0, w: 1}
  m_LocalPosition: {x: 0, y: 0, z: 0}
  m_LocalScale: {x: 1, y: 1, z: 1}
  m_Children: []
  m_Father: {fileID: 0}
  m_RootOrder: 0
  m_LocalEulerAnglesHint: {x: 0, y: 0, z: 0}
--- !u!114 &5825195049837669198
MonoBehaviour:
  m_ObjectHideFlags: 0
  m_CorrespondingSourceObject: {fileID: 0}
  m_PrefabInstance: {fileID: 0}
  m_PrefabAsset: {fileID: 0}
  m_GameObject: {fileID: 5825195049837669196}
  m_Enabled: 1
  m_EditorHideFlags: 0
  m_Script: {fileID: 11500000, guid: affd2044307041e4eb3d6b849d64631c, type: 3}
  m_Name: 
  m_EditorClassIdentifier: 
  buttonPrefab:
  - {fileID: 5633519086606643083, guid: 4a48af45e0a594340b64aba0b50ce255, type: 3}
  - {fileID: 6394611865614833603, guid: 6b8482e2b79ff4d4dbe29978dfea9549, type: 3}
  - {fileID: 2427495467191864594, guid: a7b4085f54c9fa54198eb455c54a9b58, type: 3}
  - {fileID: 3029781265997747035, guid: a2be57087725b824da1e9a5cfc46dc7a, type: 3}
  - {fileID: 6403178957073405744, guid: 5bb561296896fdc42a0fd477e80d2cc0, type: 3}
  dicePrefab:
  - {fileID: 5165145804768103542, guid: 1452056c90274a14886cac9f9a03ff0c, type: 3}
  - {fileID: 5165145804768103542, guid: f91a7ff590c8ce747ac4dfd1458a1ba1, type: 3}
  - {fileID: 5165145804768103542, guid: f8b796c23a9aa8445bd2c2502c4ee792, type: 3}
  - {fileID: 5165145804768103542, guid: e6e67e9d13c9e0f409c356de333febb3, type: 3}
  - {fileID: 5165145804768103542, guid: 83e0dbd6a01e5dc4ca35a08271c0989e, type: 3}
