%YAML 1.1
%TAG !u! tag:unity3d.com,2011:
--- !u!114 &11400000
MonoBehaviour:
  m_ObjectHideFlags: 0
  m_CorrespondingSourceObject: {fileID: 0}
  m_PrefabInstance: {fileID: 0}
  m_PrefabAsset: {fileID: 0}
  m_GameObject: {fileID: 0}
  m_Enabled: 1
  m_EditorHideFlags: 0
  m_Script: {fileID: 11500000, guid: bbb281ee3bf0b054c82ac2347e9e782c, type: 3}
  m_Name: AnimController
  m_EditorClassIdentifier: 
  m_GroupName: AnimController
  m_Data:
    m_SerializedData: []
  m_GUID: f7671e13985eae445ab04e060d2ada39
  m_SerializeEntries:
  - m_GUID: 085e50dc84a2f35438ccd740dc8946bb
    m_Address: Assets/PlayerModel/orange.controller
    m_ReadOnly: 0
    m_SerializedLabels: []
  m_ReadOnly: 0
  m_Settings: {fileID: 11400000, guid: e2bbed0bfe44b2a45bacf26323a8e93e, type: 2}
  m_SchemaSet:
    m_Schemas:
    - {fileID: 11400000, guid: 3dd37d5df640e9d4ba64f41ab05aa497, type: 2}
    - {fileID: 11400000, guid: 70fcbcae92f6e3141924c77a7d7e9a54, type: 2}
